Switching between space and time: Spatio-temporal analysis with cubble
…
A recent blog post on Vector Data Cubes by Edzer Pebesma

A major source of vector spatio-temporal data is physical sensors that measures a range of climate variables

With these data, typically you will get the spatial data by choosing a list of stations of your interest and then query the temporal data.

Now we will first talk about the spatial component before moving to the temporal component.

Represent spatial data in R?

A pair of longitude/ latitude (stations_dt)

# A tibble: 30 × 6
  id           long   lat  elev name                       wmo_id
  <chr>       <dbl> <dbl> <dbl> <chr>                       <dbl>
1 ASN00060139  153. -31.4   4.2 port macquarie airport aws  94786
2 ASN00068228  151. -34.4  10   bellambi aws                94749
# … with 28 more rows

Simple features with sf (stations_sf)

Simple feature collection with 30 features and 4 fields
Geometry type: POINT
Dimension:     XY
Bounding box:  xmin: 114.0967 ymin: -41.8739 xmax: 152.8655 ymax: -11.6502
Geodetic CRS:  GDA94
# A tibble: 30 × 5
  id           elev name                       wmo_id            geometry
  <chr>       <dbl> <chr>                       <dbl>         <POINT [°]>
1 ASN00060139   4.2 port macquarie airport aws  94786 (152.8655 -31.4336)
2 ASN00068228  10   bellambi aws                94749 (150.9291 -34.3691)
# … with 28 more rows
…
For the 30 stations I have shown you before, we also have daily information on precipitation, maximum and minimum temperature.

Here I plot the maximum temperature of each station in 2020 and because it is daily data, these lines are quite wiggly.

How’s the data quality from BOM?

First cast the data into a tsibble, before using tsibble::count_gaps() for data quality check

ts

# A tibble: 10,632 × 5
   id          date        prcp  tmax  tmin
   <chr>       <date>     <dbl> <dbl> <dbl>
 1 ASN00003057 2020-01-01     0  36.7  26.9
 2 ASN00003057 2020-01-02    41  34.2  24  
 3 ASN00003057 2020-01-03     0  35    25.4
 4 ASN00003057 2020-01-04    40  29.1  25.4
 5 ASN00003057 2020-01-05  1640  27.3  24.3
 6 ASN00003057 2020-01-06  1832  29.2  23.2
 7 ASN00003057 2020-01-07    42  36    21  
 8 ASN00003057 2020-01-08   300  31.5  25  
 9 ASN00003057 2020-01-09    90  32.2  25.3
10 ASN00003057 2020-01-10     0  34    25.9
# … with 10,622 more rows

library(tsibble)
(ts_tsibble <- ts %>% 
   as_tsibble(key = id, index = date))

# A tsibble: 10,632 x 5 [1D]
# Key:       id [30]
   id          date        prcp  tmax  tmin
   <chr>       <date>     <dbl> <dbl> <dbl>
 1 ASN00003057 2020-01-01     0  36.7  26.9
 2 ASN00003057 2020-01-02    41  34.2  24  
 3 ASN00003057 2020-01-03     0  35    25.4
 4 ASN00003057 2020-01-04    40  29.1  25.4
 5 ASN00003057 2020-01-05  1640  27.3  24.3
 6 ASN00003057 2020-01-06  1832  29.2  23.2
 7 ASN00003057 2020-01-07    42  36    21  
 8 ASN00003057 2020-01-08   300  31.5  25  
 9 ASN00003057 2020-01-09    90  32.2  25.3
10 ASN00003057 2020-01-10     0  34    25.9
# … with 10,622 more rows
The data are downloaded from the Bureau of Meteorology and are structued in a long table

[introduce data]

We would like to know about the data quatlity before proceed to any analysis and the tsibble package has a function count_gaps() for that.

The count_gaps() function requires the data to be a tsibble object, so we first need to create a tsibble from our data.

[explain creation]

How’s the data quality from BOM?

(missings <- ts_tsibble %>% tsibble::count_gaps())

# A tibble: 112 × 4
  id          .from      .to           .n
  <chr>       <date>     <date>     <int>
1 ASN00003057 2020-02-17 2020-02-18     2
2 ASN00003057 2020-02-25 2020-03-01     6
3 ASN00003057 2020-03-07 2020-03-09     3
4 ASN00003057 2020-03-11 2020-03-13     3
5 ASN00003057 2020-03-25 2020-03-27     3
# … with 107 more rows
…
The only few that we may need to be cautious are …

Bear in mind that not all of the stations are automatic, someone needs to go to the station everyday 9 am to write down these numbers, so this amount of missingness is acceptable to me

Make the inexplicit NAs explicit

single <- ts_tsibble %>% 
  filter(id == "ASN00003057")
single_filled <- single %>% 
  tsibble::fill_gaps()

single %>% 
  filter(date >= "2020-02-15") 

# A tsibble: 271 x 5 [1D]
# Key:       id [1]
  id          date        prcp  tmax  tmin
  <chr>       <date>     <dbl> <dbl> <dbl>
1 ASN00003057 2020-02-15     0  33.7  25.5
2 ASN00003057 2020-02-16     0  33.5  28.5
3 ASN00003057 2020-02-19    20  34    24.4
4 ASN00003057 2020-02-20     0  34.1  26.5
5 ASN00003057 2020-02-21     0  34.5  25.7
# … with 266 more rows

single_filled %>% 
  filter(date >= "2020-02-15")

# A tsibble: 321 x 5 [1D]
# Key:       id [1]
  id          date        prcp  tmax  tmin
  <chr>       <date>     <dbl> <dbl> <dbl>
1 ASN00003057 2020-02-15     0  33.7  25.5
2 ASN00003057 2020-02-16     0  33.5  28.5
3 ASN00003057 2020-02-17    NA  NA    NA  
4 ASN00003057 2020-02-18    NA  NA    NA  
5 ASN00003057 2020-02-19    20  34    24.4
# … with 316 more rows
…
